<svg width="270" height="49" viewBox="0 0 270 49" fill="none" xmlns="http://www.w3.org/2000/svg">
<path d="M57.5156 12.3203H75.8438C75.9375 12.3203 76.0312 12.4141 76.125 12.6016V18.625C76.125 18.7031 76.0312 18.7969 75.8438 18.9062H57.5156C57.4219 18.9062 57.3281 18.8125 57.2344 18.625V12.6016C57.2344 12.5078 57.3281 12.4141 57.5156 12.3203ZM57.5156 25.8203H75.8438C75.9375 25.8203 76.0312 25.9141 76.125 26.1016V32.125C76.125 32.2188 76.0312 32.3125 75.8438 32.4062H57.5156C57.4219 32.4062 57.3281 32.3125 57.2344 32.125V26.1016C57.2344 26.0234 57.3281 25.9297 57.5156 25.8203ZM57.5156 39.4375H75.8438C75.9375 39.4375 76.0312 39.5234 76.125 39.6953V45.7188C76.125 45.8125 76.0312 45.9062 75.8438 46H57.5156C57.4219 46 57.3281 45.9062 57.2344 45.7188V39.6953C57.2344 39.6172 57.3281 39.5312 57.5156 39.4375ZM105.964 46.768C104.236 46.768 102.652 46.4 101.212 45.664C99.8038 44.928 98.7158 43.952 97.9478 42.736H97.7558V46H93.5318V11.632H97.9478V22.48L97.7558 25.744H97.9478C98.7158 24.528 99.8038 23.552 101.212 22.816C102.652 22.08 104.236 21.712 105.964 21.712C109.068 21.712 111.692 22.928 113.836 25.36C116.044 27.824 117.148 30.784 117.148 34.24C117.148 37.728 116.044 40.688 113.836 43.12C111.692 45.552 109.068 46.768 105.964 46.768ZM105.244 42.736C107.356 42.736 109.132 41.936 110.572 40.336C112.012 38.768 112.732 36.736 112.732 34.24C112.732 31.776 112.012 29.744 110.572 28.144C109.132 26.544 107.356 25.744 105.244 25.744C103.1 25.744 101.308 26.544 99.8678 28.144C98.4598 29.744 97.7558 31.776 97.7558 34.24C97.7558 36.736 98.4598 38.784 99.8678 40.384C101.308 41.952 103.1 42.736 105.244 42.736ZM124.404 38.8C124.404 39.952 124.884 40.912 125.844 41.68C126.836 42.448 127.988 42.832 129.3 42.832C131.156 42.832 132.804 42.144 134.244 40.768C135.716 39.392 136.452 37.776 136.452 35.92C135.076 34.832 133.156 34.288 130.692 34.288C128.9 34.288 127.396 34.72 126.18 35.584C124.996 36.448 124.404 37.52 124.404 38.8ZM130.116 21.712C133.38 21.712 135.956 22.592 137.844 24.352C139.732 26.08 140.676 28.464 140.676 31.504V46H136.452V42.736H136.26C134.436 45.424 132.004 46.768 128.964 46.768C126.372 46.768 124.196 46 122.436 44.464C120.708 42.928 119.844 41.008 119.844 38.704C119.844 36.272 120.756 34.336 122.58 32.896C124.436 31.456 126.9 30.736 129.972 30.736C132.596 30.736 134.756 31.216 136.452 32.176V31.168C136.452 29.632 135.844 28.336 134.628 27.28C133.412 26.192 131.988 25.648 130.356 25.648C127.892 25.648 125.94 26.688 124.5 28.768L120.612 26.32C122.756 23.248 125.924 21.712 130.116 21.712ZM156.174 46.768C152.686 46.768 149.79 45.584 147.486 43.216C145.214 40.784 144.078 37.792 144.078 34.24C144.078 30.624 145.214 27.632 147.486 25.264C149.79 22.896 152.686 21.712 156.174 21.712C158.574 21.712 160.67 22.32 162.462 23.536C164.254 24.72 165.598 26.368 166.494 28.48L162.462 30.16C161.214 27.216 159.022 25.744 155.886 25.744C153.87 25.744 152.126 26.56 150.654 28.192C149.214 29.824 148.494 31.84 148.494 34.24C148.494 36.64 149.214 38.656 150.654 40.288C152.126 41.92 153.87 42.736 155.886 42.736C159.118 42.736 161.39 41.264 162.702 38.32L166.638 40C165.774 42.112 164.414 43.776 162.558 44.992C160.734 46.176 158.606 46.768 156.174 46.768ZM191.189 46H185.861L178.517 34.912L174.917 38.464V46H170.501V11.632H174.917V32.8L185.093 22.48H190.757V22.672L181.589 31.792L191.189 45.808V46ZM203.561 46.768C200.105 46.768 197.257 45.584 195.017 43.216C192.777 40.848 191.657 37.856 191.657 34.24C191.657 30.656 192.745 27.68 194.921 25.312C197.097 22.912 199.881 21.712 203.273 21.712C206.761 21.712 209.529 22.848 211.577 25.12C213.657 27.36 214.697 30.512 214.697 34.576L214.649 35.056H196.169C196.233 37.36 197.001 39.216 198.473 40.624C199.945 42.032 201.705 42.736 203.753 42.736C206.569 42.736 208.777 41.328 210.377 38.512L214.312 40.432C213.257 42.416 211.785 43.968 209.897 45.088C208.041 46.208 205.929 46.768 203.561 46.768ZM196.505 31.408H209.993C209.865 29.776 209.193 28.432 207.977 27.376C206.793 26.288 205.193 25.744 203.177 25.744C201.513 25.744 200.073 26.256 198.857 27.28C197.673 28.304 196.889 29.68 196.505 31.408ZM218.735 22.48H222.959V25.744H223.151C223.823 24.592 224.847 23.632 226.223 22.864C227.631 22.096 229.087 21.712 230.591 21.712C233.471 21.712 235.679 22.544 237.215 24.208C238.783 25.84 239.567 28.176 239.567 31.216V46H235.151V31.504C235.055 27.664 233.119 25.744 229.343 25.744C227.583 25.744 226.111 26.464 224.927 27.904C223.743 29.312 223.151 31.008 223.151 32.992V46H218.735V22.48ZM255.311 42.736C257.487 42.736 259.263 41.952 260.639 40.384C262.079 38.816 262.799 36.768 262.799 34.24C262.799 31.776 262.079 29.744 260.639 28.144C259.231 26.544 257.455 25.744 255.311 25.744C253.199 25.744 251.423 26.544 249.983 28.144C248.543 29.744 247.823 31.776 247.823 34.24C247.823 36.736 248.543 38.768 249.983 40.336C251.423 41.936 253.199 42.736 255.311 42.736ZM254.591 46.768C251.519 46.768 248.879 45.552 246.671 43.12C244.495 40.656 243.407 37.696 243.407 34.24C243.407 30.784 244.495 27.824 246.671 25.36C248.879 22.928 251.519 21.712 254.591 21.712C256.319 21.712 257.887 22.08 259.295 22.816C260.735 23.552 261.839 24.528 262.607 25.744H262.799L262.607 22.48V11.632H267.023V46H262.799V42.736H262.607C261.839 43.952 260.735 44.928 259.295 45.664C257.887 46.4 256.319 46.768 254.591 46.768Z" fill="black"/>
<path fill-rule="evenodd" clip-rule="evenodd" d="M17.7273 10.8182C17.7273 9.81403 18.5413 9 19.5455 9C26.8256 9 32.7273 14.9017 32.7273 22.1818C32.7273 28.9619 27.6086 34.5463 21.0248 35.2816C20.7347 35.3285 20.4381 35.3559 20.1363 35.3622C21.858 37.0501 24.2166 38.0909 26.8182 38.0909C32.09 38.0909 36.3636 33.8173 36.3636 28.5455C36.3636 27.5413 37.1777 26.7273 38.1818 26.7273C39.186 26.7273 40 27.5413 40 28.5455C40 35.8256 34.0983 41.7273 26.8182 41.7273C20.0381 41.7273 14.4537 36.6086 13.7184 30.0248C13.6644 29.6912 13.6364 29.3489 13.6364 29C13.6364 28.7711 13.6221 28.5365 13.6516 28.3091C11.4281 30.0567 10 32.7707 10 35.8182C10 41.09 14.2736 45.3636 19.5455 45.3636C20.5496 45.3636 21.3636 46.1777 21.3636 47.1818C21.3636 48.186 20.5496 49 19.5455 49C12.2653 49 6.36364 43.0983 6.36364 35.8182C6.36364 28.538 12.2653 22.6364 19.5455 22.6364C20.1871 22.6364 20.8133 22.6582 21.4089 22.7929C19.7487 19.9788 16.6857 18.0909 13.1818 18.0909C7.91 18.0909 3.63636 22.3645 3.63636 27.6364C3.63636 28.6405 2.82234 29.4545 1.81818 29.4545C0.814028 29.4545 0 28.6405 0 27.6364C0 20.3562 5.9017 14.4545 13.1818 14.4545C20.462 14.4545 26.3636 20.3562 26.3636 27.6364C26.3636 28.0496 26.3534 28.445 26.3622 28.8637C28.0501 27.142 29.0909 24.7834 29.0909 22.1818C29.0909 16.91 24.8173 12.6364 19.5455 12.6364C18.5413 12.6364 17.7273 11.8223 17.7273 10.8182ZM20.5158 31.6786C21.7754 31.4374 22.7273 30.3299 22.7273 29C22.7273 27.4938 21.5062 26.2727 20 26.2727C18.5469 26.2727 17.3592 27.4092 17.2772 28.8418C17.2842 29.0686 17.299 29.2933 17.3214 29.5158C17.5529 30.7251 18.5831 31.6508 19.8418 31.7228C20.0686 31.7158 20.2933 31.701 20.5158 31.6786Z" fill="#FCB500"/>
</svg>
